
{
    "photos": {
        "page": 1,
        "pages": 36816,
        "perpage": 5,
        "total": 184078,
        "photo": [
            {
                "id": "53782155770",
                "owner": "185640525@N04",
                "secret": "b7190de1a3",
                "server": "65535",
                "farm": 66,
                "title": "Limestone carvings",
                "ispublic": 1,
                "isfriend": 0,
                "isfamily": 0
            },
            {
                "id": "53780795837",
                "owner": "185640525@N04",
                "secret": "602c2c079b",
                "server": "65535",
                "farm": 66,
                "title": "Winskill sunset",
                "ispublic": 1,
                "isfriend": 0,
                "isfamily": 0
            },
            {
                "id": "53780619532",
                "owner": "188077531@N05",
                "secret": "3091635bc5",
                "server": "65535",
                "farm": 66,
                "title": "First West Yorkshire: 33883 \/ SN14 TVO",
                "ispublic": 1,
                "isfriend": 0,
                "isfamily": 0
            },
            {
                "id": "53781849144",
                "owner": "54032685@N00",
                "secret": "5c5e495eec",
                "server": "65535",
                "farm": 66,
                "title": "Leaning",
                "ispublic": 1,
                "isfriend": 0,
                "isfamily": 0
            },
            {
                "id": "53780587707",
                "owner": "54032685@N00",
                "secret": "4714a5efd9",
                "server": "65535",
                "farm": 66,
                "title": "Little and Large",
                "ispublic": 1,
                "isfriend": 0,
                "isfamily": 0
            }
        ]
    },
    "stat": "ok"
}
